{
    "code": 0,
    "message": "\u8bf7\u6c42\u6210\u529f",
    "content": {
        "current_page": 1,
        "data": [
            {
                "net": "EOS",
                "symbol": "DICE",
                "contract": "betdicetoken",
                "name": null,
                "image": "https://img.blockdog.com/eos_asset_icons/DICE.png",
                "coinDecimal": 4,
                "priceDecimal": 6,
                "status": 1,
                "order": 5,
                "createTime": "2018-12-07 16:19:03",
                "updateTime": "2019-06-03 14:16:09",
                "extension": null,
                "toUsd": null,
                "toNet": "0.000214",
                "change24h": "0.0239",
                "isPopular": 1,
                "isHome": 1,
                "tag": 1,
                "hotDeadline": "2019-05-20 15:11:06",
                "activityUrl": null,
                "website": "https://betdice.one",
                "whitePaper": null,
                "marketValue": null,
                "marketRank": null,
                "supply": "5656971684.8274",
                "maxSupply": "8800000000",
                "description": "Betdice.one is a completely trustworthy, profit-sharing and fair gaming platform based on EOS blockchain.DICE tokens are issued once Betdice goes live.Brand-new profit-sharing gaming platform.50% of Net Profit is paid out to those who have DICE staked in every hour. Gaming creates a win-win situation for both you and us.",
                "descriptionZh": "Betdice.one\u662f\u4e00\u4e2a\u57fa\u4e8eEOS\u5757\u94fe\u7684\u5b8c\u5168\u53ef\u4fe1\u3001\u5229\u6da6\u5171\u4eab\u548c\u516c\u5e73\u7684\u6e38\u620f\u5e73\u53f0\u3002DICE\u4ee3\u5e01\u5728Betdice\u4e0a\u7ebf\u540e\u53d1\u51fa\u3002Betdice.one\u662f\u4e00\u4e2a\u5168\u65b0\u7684\u5229\u6da6\u5206\u4eab\u6e38\u620f\u5e73\u53f0\uff0c50%\u7684\u51c0\u5229\u6da6\u5c06\u652f\u4ed8\u7ed9\u90a3\u4e9b\u6bcf\u5c0f\u65f6\u90fd\u4ea4\u6613DICE\u7684\u6301\u6709\u8005\u3002\u6e38\u620f\u4e3a\u4f60\u6211\u521b\u9020\u53cc\u8d62\u5c40\u9762\u3002",
                "community": null
            },
            {
                "net": "EOS",
                "symbol": "EOS",
                "contract": "eosio.token",
                "name": null,
                "image": "https://img.blockdog.com/eos_asset_icons/EOS.png",
                "coinDecimal": 4,
                "priceDecimal": null,
                "status": 1,
                "order": 1,
                "createTime": "2018-12-07 16:19:03",
                "updateTime": "2019-06-03 01:00:07",
                "extension": null,
                "toUsd": null,
                "toNet": null,
                "change24h": null,
                "isPopular": 1,
                "isHome": 0,
                "tag": 0,
                "hotDeadline": null,
                "activityUrl": null,
                "website": "https://eos.io/",
                "whitePaper": null,
                "marketValue": null,
                "marketRank": null,
                "supply": "1014162503.1312",
                "maxSupply": "1000000000",
                "description": "EOS",
                "descriptionZh": "EOS",
                "community": null
            },
            {
                "net": "ETH",
                "symbol": "MKR",
                "contract": "0x9f8f72aa9304c8b593d555f12ef6589cc3a579a2",
                "name": "Maker (MKR)",
                "image": "https://img.blockdog.com/eth_token_icons/627cee00-aab0-4a95-8324-f841d8e4e018-mkr-etherscan-35.png",
                "coinDecimal": null,
                "priceDecimal": null,
                "status": 1,
                "order": 1,
                "createTime": "2019-03-13 22:55:32",
                "updateTime": "2019-05-26 13:14:21",
                "extension": null,
                "toUsd": "671.0398000000",
                "toNet": "2.849530",
                "change24h": "0.0417",
                "isPopular": 1,
                "isHome": 0,
                "tag": 1,
                "hotDeadline": "2019-05-31 13:14:21",
                "activityUrl": null,
                "website": null,
                "whitePaper": null,
                "marketValue": null,
                "marketRank": null,
                "supply": null,
                "maxSupply": null,
                "description": "Maker is a Decentralized Autonomous Organization that creates and insures the dai stablecoin on the Ethereum blockchain",
                "descriptionZh": null,
                "community": null
            },
            {
                "net": "EOS",
                "symbol": "ADD",
                "contract": "eosadddddddd",
                "name": null,
                "image": "https://img.blockdog.com/eos_asset_icons/ADD.png",
                "coinDecimal": 4,
                "priceDecimal": 6,
                "status": 1,
                "order": 0,
                "createTime": "2018-12-07 16:19:03",
                "updateTime": "2019-06-03 14:16:09",
                "extension": null,
                "toUsd": null,
                "toNet": "2.4e-05",
                "change24h": "0",
                "isPopular": 0,
                "isHome": 0,
                "tag": 0,
                "hotDeadline": null,
                "activityUrl": null,
                "website": "http://eosadd.com",
                "whitePaper": null,
                "marketValue": null,
                "marketRank": null,
                "supply": "10000000000.0000",
                "maxSupply": "10000000000",
                "description": "EOS ADD provides data center and application platform for transformation from 'Internet plus 'to 'block chain plus'.",
                "descriptionZh": "EOS ADD\u63d0\u4f9b\u4ece\u201c\u4e92\u8054\u7f51+\u201d\u5230\u201c\u533a\u5757\u94fe+\u201d\u8f6c\u578b\u7684\u6570\u636e\u4e2d\u67a2\u4e0e\u5e94\u7528\u5e73\u53f0\u3002",
                "community": null
            },
            {
                "net": "EOS",
                "symbol": "ADE",
                "contract": "buildertoken",
                "name": null,
                "image": "https://img.blockdog.com/eos_asset_icons/ADE.png",
                "coinDecimal": 4,
                "priceDecimal": 6,
                "status": 1,
                "order": 0,
                "createTime": "2018-12-07 16:19:03",
                "updateTime": "2019-06-03 14:16:10",
                "extension": null,
                "toUsd": null,
                "toNet": "1.04e-05",
                "change24h": "0",
                "isPopular": 0,
                "isHome": 0,
                "tag": 0,
                "hotDeadline": null,
                "activityUrl": null,
                "website": "https://cadeos.io",
                "whitePaper": null,
                "marketValue": null,
                "marketRank": null,
                "supply": "1000000000.0000",
                "maxSupply": "1000000000",
                "description": "CADEOS is a distributed CAD file and project management platform.",
                "descriptionZh": "CADEOS\u662f\u5206\u5e03\u5f0f\u7684CAD\u6587\u4ef6\u548c\u9879\u76ee\u7ba1\u7406\u5e73\u53f0\u3002",
                "community": null
            },
            {
                "net": "EOS",
                "symbol": "ARN",
                "contract": "aeronaerozzz",
                "name": null,
                "image": "https://img.blockdog.com/eos_asset_icons/ARN.png",
                "coinDecimal": 4,
                "priceDecimal": 4,
                "status": 1,
                "order": 0,
                "createTime": "2018-12-07 16:19:03",
                "updateTime": "2019-06-03 14:16:11",
                "extension": null,
                "toUsd": null,
                "toNet": "0.0394",
                "change24h": "-0.3088",
                "isPopular": 0,
                "isHome": 0,
                "tag": 0,
                "hotDeadline": null,
                "activityUrl": null,
                "website": "https://aeron.aero",
                "whitePaper": null,
                "marketValue": null,
                "marketRank": null,
                "supply": "20000000.00000000",
                "maxSupply": "20000000",
                "description": "Blockchain for Aviation Safety.",
                "descriptionZh": "Aeron\u662f\u4e00\u5957\u4ee5\u533a\u5757\u94fe\u6280\u672f\u6765\u8ddf\u8e2a\u98de\u673a\u65e5\u5e38\u7ef4\u62a4\u548c\u98de\u884c\u5458\u65e5\u5fd7\u7684\u7cfb\u7edf\u3002Aeron\u6b63\u5728\u6784\u5efa\u4e00\u4e2a\u5168\u7403\u5206\u5e03\u5f0f\u6570\u636e\u5e93\u6765\u7ba1\u7406\u98de\u673a\uff0c\u98de\u884c\u5b66\u6821\uff0c\u98de\u884c\u5458\u7684\u6570\u636e\u3002\u8fd9\u6837\u7684\u7535\u5b50\u76d1\u63a7\u7cfb\u7edf\u53ef\u4ee5\u76d1\u7763\u98de\u884c\u5458\uff0c\u8ba9\u4ed6\u4eec\u5fc5\u987b\u53ca\u65f6\u53cd\u6620\u51c6\u786e\u7684\u98de\u884c\u65f6\u95f4\uff0c\u98de\u884c\u65e5\u5fd7\u7b49\u6570\u636e\uff0c\u4ece\u800c\u4f7f\u5f97\u822a\u7a7a\u66f4\u52a0\u5b89\u5168\u3002\nAeron\uff08ARN\uff09\u4ee4\u724c\u5c06\u88ab\u7eb3\u5165Aeron\u4ea7\u54c1\u4e2d\u3002\u5b83\u6709\u52a9\u4e8e\u589e\u5f3a\u4ea7\u54c1\u7684\u5b9e\u7528\u6027\uff0c\u8ba9\u4eba\u4eec\u53ef\u4ee5\u901a\u8fc7\u4ee4\u724c\u5bf9\u9879\u76ee\u7684\u751f\u6001\u7cfb\u7edf\uff0c\u8bbf\u95ee\u6743\u9650\uff0c\u6240\u6709\u6743\u7b49\u505a\u51fa\u81ea\u5df1\u7684\u8d21\u732e\u3002ARN\u662f\u4e00\u79cd\u81ea\u6211\u7ea6\u675f\u3002\u4ee4\u724c\u4e0d\u4ec5\u53ef\u4ee5\u8bbf\u95eeAeron\u5e73\u53f0\u4e0a\u6709\u4ef7\u503c\u7684\u529f\u80fd\uff0c\u540c\u65f6\u4e5f\u4e0d\u4f1a\u53d7\u5230Aeron\u79fb\u52a8APP\u7684\u9650\u5236\u3002",
                "community": null
            },
            {
                "net": "EOS",
                "symbol": "ATD",
                "contract": "eosatidiumio",
                "name": null,
                "image": "https://img.blockdog.com/eos_asset_icons/ATD.png",
                "coinDecimal": 4,
                "priceDecimal": 7,
                "status": 1,
                "order": 0,
                "createTime": "2018-12-07 16:19:03",
                "updateTime": "2019-06-03 14:16:10",
                "extension": null,
                "toUsd": null,
                "toNet": "1.09e-05",
                "change24h": "0",
                "isPopular": 0,
                "isHome": 0,
                "tag": 0,
                "hotDeadline": null,
                "activityUrl": null,
                "website": "https://www.atidium.io",
                "whitePaper": null,
                "marketValue": null,
                "marketRank": null,
                "supply": "1500000000.0000",
                "maxSupply": "1500000000",
                "description": "Atidium is a payments and  budget management decentralized application for individuals and businesses.",
                "descriptionZh": "Atidium\u662f\u9762\u5411\u4e2a\u4eba\u548c\u4f01\u4e1a\u7684\u652f\u4ed8\u548c\u9884\u7b97\u7ba1\u7406\u5206\u6563\u5e94\u7528\u7a0b\u5e8f\u3002",
                "community": null
            },
            {
                "net": "EOS",
                "symbol": "BG",
                "contract": "bgbgbgbgbgbg",
                "name": null,
                "image": "https://img.blockdog.com/eos_asset_icons/BG.png",
                "coinDecimal": 4,
                "priceDecimal": 6,
                "status": 1,
                "order": 0,
                "createTime": "2018-12-07 16:19:03",
                "updateTime": "2019-06-03 14:16:09",
                "extension": null,
                "toUsd": null,
                "toNet": "0.002881",
                "change24h": "0.0035",
                "isPopular": 1,
                "isHome": 0,
                "tag": 0,
                "hotDeadline": null,
                "activityUrl": null,
                "website": "https://big.game",
                "whitePaper": null,
                "marketValue": null,
                "marketRank": null,
                "supply": "367000000.0000",
                "maxSupply": "1000000000",
                "description": "Fair, transparent, fun and stimulating EOS gaming platform.",
                "descriptionZh": "\u516c\u5e73\u900f\u660e\u3001\u6709\u8da3\u523a\u6fc0\u7684EOS\u535a\u5f69\u6e38\u620f\u5e73\u53f0\u3002",
                "community": null
            },
            {
                "net": "EOS",
                "symbol": "BLACK",
                "contract": "eosblackteam",
                "name": null,
                "image": "https://img.blockdog.com/eos_asset_icons/BLACK.png",
                "coinDecimal": 4,
                "priceDecimal": 5,
                "status": 1,
                "order": 0,
                "createTime": "2018-12-07 16:19:03",
                "updateTime": "2019-06-03 14:16:09",
                "extension": null,
                "toUsd": null,
                "toNet": "0.00059",
                "change24h": "-0.0881",
                "isPopular": 0,
                "isHome": 0,
                "tag": 0,
                "hotDeadline": null,
                "activityUrl": null,
                "website": "https://eosblack.io",
                "whitePaper": null,
                "marketValue": null,
                "marketRank": null,
                "supply": "2100000000.0000",
                "maxSupply": "3000000000",
                "description": "EOSBLACK is a platform for users to participate in developing DAPP. Members of the community elect the best DAPP to exhibit on the platform. When DApps receive enough sufficient votes, it will be successfully developed.",
                "descriptionZh": "EOSBLACK\u662f\u4e00\u4e2a\u7528\u6237\u53c2\u4e0e\u5f00\u53d1DAPP\u7684\u5e73\u53f0\u3002\u793e\u533a\u6210\u5458\u9009\u51fa\u6700\u597d\u7684DAPP\u5728\u5e73\u53f0\u4e0a\u5c55\u51fa\u3002\u83b7\u5f97\u8db3\u591f\u7968\u6570\u7684DAPP\u5c06\u6210\u529f\u5f00\u53d1\u3002",
                "community": null
            },
            {
                "net": "EOS",
                "symbol": "BOCAI",
                "contract": "eosbocai1111",
                "name": null,
                "image": "https://img.blockdog.com/eos_asset_icons/BOCAI.png",
                "coinDecimal": 4,
                "priceDecimal": 7,
                "status": 1,
                "order": 0,
                "createTime": "2018-12-07 16:19:03",
                "updateTime": "2019-06-03 14:16:11",
                "extension": null,
                "toUsd": null,
                "toNet": "1.2e-06",
                "change24h": "-0.0244",
                "isPopular": 0,
                "isHome": 0,
                "tag": 0,
                "hotDeadline": null,
                "activityUrl": null,
                "website": "https://eosdice.vip",
                "whitePaper": null,
                "marketValue": null,
                "marketRank": null,
                "supply": "924269425.2200",
                "maxSupply": "8800000000",
                "description": "BOCAI is the token of the EOSDICE game platform which enjoying the following dividend.",
                "descriptionZh": "BOCAI\u662fEOSDICE\u6e38\u620f\u5e73\u53f0\u7684\u4ee3\u5e01\uff0c\u4eab\u53d7\u540e\u7eed\u5206\u7ea2\u3002",
                "community": null
            },
            {
                "net": "EOS",
                "symbol": "BOID",
                "contract": "boidcomtoken",
                "name": null,
                "image": "https://img.blockdog.com/eos_asset_icons/BOID.png",
                "coinDecimal": 4,
                "priceDecimal": 7,
                "status": 1,
                "order": 0,
                "createTime": "2018-12-07 16:19:03",
                "updateTime": "2019-06-03 14:16:09",
                "extension": null,
                "toUsd": null,
                "toNet": "3.01e-05",
                "change24h": "-0.0099",
                "isPopular": 0,
                "isHome": 0,
                "tag": 0,
                "hotDeadline": null,
                "activityUrl": null,
                "website": "https://www.boid.com",
                "whitePaper": null,
                "marketValue": null,
                "marketRank": null,
                "supply": "6659785015.6634",
                "maxSupply": "25000000000",
                "description": "Users will be rewarded on the Boid by contributing their spare HashRate that can be assigned to academic research, such as medical research, meteorology, aerospace and mechanical learning.",
                "descriptionZh": "\u7528\u6237\u53ef\u4ee5\u901a\u8fc7\u8d21\u732e\u81ea\u5df1\u95f2\u7f6e\u7684\u7b97\u529b\u5728Boid\u4e0a\u6765\u83b7\u5f97\u5956\u52b1\uff0c\u8fd9\u4e9b\u7b97\u529b\u53ef\u4ee5\u88ab\u5206\u914d\u7ed9\u5b66\u672f\u7814\u7a76\uff0c\u4f8b\u5982\u533b\u5b66\u7814\u7a76\u3001\u6c14\u8c61\u5b66\u3001\u822a\u5929\u822a\u7a7a\u548c\u673a\u68b0\u5b66\u4e60\u7b49\u9886\u57df\u3002",
                "community": null
            },
            {
                "net": "EOS",
                "symbol": "BTN",
                "contract": "eosbuttonbtn",
                "name": null,
                "image": "https://img.blockdog.com/eos_asset_icons/BTN.png",
                "coinDecimal": 4,
                "priceDecimal": 8,
                "status": 1,
                "order": 0,
                "createTime": "2018-12-07 16:19:03",
                "updateTime": "2019-06-03 01:02:55",
                "extension": null,
                "toUsd": null,
                "toNet": null,
                "change24h": null,
                "isPopular": 0,
                "isHome": 0,
                "tag": 0,
                "hotDeadline": null,
                "activityUrl": null,
                "website": "https://eosbutton.io",
                "whitePaper": null,
                "marketValue": null,
                "marketRank": null,
                "supply": "3000000000.0000",
                "maxSupply": "3000000000",
                "description": "BTN inspired by The Button's block chain games.",
                "descriptionZh": "BTN\u7075\u611f\u6e90\u81eaThe Button\u7684\u533a\u5757\u94fe\u6e38\u620f\u3002",
                "community": null
            },
            {
                "net": "EOS",
                "symbol": "CAN",
                "contract": "eoscancancan",
                "name": null,
                "image": "https://img.blockdog.com/eos_asset_icons/CAN.png",
                "coinDecimal": 4,
                "priceDecimal": 4,
                "status": 1,
                "order": 0,
                "createTime": "2018-12-07 16:19:03",
                "updateTime": "2019-06-03 14:16:11",
                "extension": null,
                "toUsd": null,
                "toNet": "0.8979",
                "change24h": "0",
                "isPopular": 1,
                "isHome": 0,
                "tag": 0,
                "hotDeadline": null,
                "activityUrl": null,
                "website": "https://cannoncapital.io",
                "whitePaper": null,
                "marketValue": null,
                "marketRank": null,
                "supply": "3000000.0000",
                "maxSupply": "3000000",
                "description": "CAN participates in the development of the EOS blockchain network to profoundly change our lives in a better way. We aim to centralize everything! As a highly recognized community, we are willing to connect and promote the communication between overseas communities and Chinese EOS communities. We are pleased to lead the participation of most domestic token holders in the development of the global EOS community. EOS Cannon will be a stable super node serving the community. In addition, we are planning to be a active EOS ecosystem contributors and project incubators. We are not just an EOS community, we will be an important partner for EOS in China. ",
                "descriptionZh": "\u53c2\u4e0eEOS\u533a\u5757\u94fe\u7f51\u7edc\u7684\u53d1\u5c55\uff0c\u4ee5\u66f4\u597d\u7684\u65b9\u5f0f\u6df1\u523b\u6539\u53d8\u6211\u4eec\u7684\u751f\u6d3b\u3002\u6211\u4eec\u628a\u5c06\u4e00\u5207\u90fd\u533a\u4e2d\u5fc3\u5316\u4f5c\u4e3a\u6211\u4eec\u7684\u76ee\u6807\uff01\u4f5c\u4e3a\u9ad8\u5ea6\u77e5\u540d\u7684\u793e\u533a\uff0c\u6211\u4eec\u613f\u610f\u8fde\u63a5\u548c\u4fc3\u8fdb\u6d77\u5916\u793e\u533a\u548c\u4e2d\u56fdEOS\u793e\u533a\u4e4b\u95f4\u7684\u5171\u4eab\u3002\u6211\u4eec\u5f88\u9ad8\u5174\u9886\u5bfc\u5230\u591a\u6570\u56fd\u5185token\u6301\u6709\u8005\u53c2\u4e0e\u5168\u7403EOS\u793e\u533a\u7684\u53d1\u5c55\u3002EOS Cannon\u5c06\u662f\u4e00\u4e2a\u7a33\u5b9a\u7684\u8d85\u7ea7\u8282\u70b9\uff0c\u4e3a\u793e\u533a\u670d\u52a1\u3002\u6b64\u5916\uff0c\u6211\u4eec\u8ba1\u5212\u6210\u4e3a\u79ef\u6781\u7684EOS\u751f\u6001\u7cfb\u7edf\u8d21\u732e\u8005\u548c\u9879\u76ee\u5b75\u5316\u5668\u3002\u6211\u4eec\u4e0d\u4ec5\u4ec5\u662f\u4e00\u4e2aEOS\u793e\u533a\uff0c\u6211\u4eec\u5c06\u6210\u4e3aEOS\u5728\u4e2d\u56fd\u7684\u91cd\u8981\u5408\u4f5c\u4f19\u4f34\u3002",
                "community": null
            },
            {
                "net": "EOS",
                "symbol": "CAT",
                "contract": "tokenbyeocat",
                "name": null,
                "image": "https://img.blockdog.com/eos_asset_icons/CAT.png",
                "coinDecimal": 4,
                "priceDecimal": 6,
                "status": 1,
                "order": 0,
                "createTime": "2018-12-07 16:19:03",
                "updateTime": "2019-06-03 14:16:11",
                "extension": null,
                "toUsd": null,
                "toNet": "3.3e-05",
                "change24h": "-0.1129",
                "isPopular": 0,
                "isHome": 0,
                "tag": 0,
                "hotDeadline": null,
                "activityUrl": null,
                "website": "https://eocat.io",
                "whitePaper": null,
                "marketValue": null,
                "marketRank": null,
                "supply": "2000000000.0000",
                "maxSupply": "2000000000",
                "description": "EOCAT is a Block Explorer app that makes it easy to manage EOS account. With EOCAT, you can check all the information related to EOS accounts and also receive the airdrop with one touch.",
                "descriptionZh": "EOCAT\u662f\u4e00\u4e2aBlock Explorer\u5e94\u7528\u7a0b\u5e8f\uff0c\u5b83\u4f7f\u5f97\u7ba1\u7406EOS\u5e10\u6237\u53d8\u5f97\u5bb9\u6613\u3002\u4f7f\u7528EOCAT\uff0c\u60a8\u53ef\u4ee5\u68c0\u67e5\u4e0eEOS\u5e10\u6237\u76f8\u5173\u7684\u6240\u6709\u4fe1\u606f\u540c\u65f6\u8fd8\u80fd\u4e00\u89e6\u5373\u5f97\u7684\u7a7a\u6295\u3002",
                "community": null
            },
            {
                "net": "EOS",
                "symbol": "CET",
                "contract": "eosiochaince",
                "name": null,
                "image": "https://img.blockdog.com/eos_asset_icons/CET.png",
                "coinDecimal": 4,
                "priceDecimal": 5,
                "status": 1,
                "order": 0,
                "createTime": "2018-12-07 16:19:03",
                "updateTime": "2019-06-03 14:16:09",
                "extension": null,
                "toUsd": null,
                "toNet": "0.00132",
                "change24h": "0.0076",
                "isPopular": 0,
                "isHome": 0,
                "tag": 0,
                "hotDeadline": null,
                "activityUrl": null,
                "website": "https://chaince.com",
                "whitePaper": null,
                "marketValue": null,
                "marketRank": null,
                "supply": "2000000000.0000",
                "maxSupply": "2000000000",
                "description": "The Chaince Foundation, which is incorporated on the Cayman Islands and operates independently, will issue Chaince Tokens (CET) based on the EOS for a total amount of 2 billion. The 50% one-way EOS transaction fees on the Chaince transaction platform (i.e. the EOS transaction fees deducted from the platform when users sell other blockchain assets and buy EOS) will be perpetually injected into the Chaince Foundation public address weekly. Each CET token represents one 2 billionth of the EOS tokens held by the Foundation.",
                "descriptionZh": "\u6ce8\u518c\u4e8e\u5f00\u66fc\u7fa4\u5c9b\u5e76\u72ec\u7acb\u8fd0\u8425\u7684 Chaince \u57fa\u91d1\u4f1a\u5c06\u4e8e 2018 \u5e74 6 \u6708\u53d1\u884c\u57fa\u4e8e EOS \u4e3b\u7f51\u4ee3\u5e01\u534f\u8bae\u7684 Chaince Token\uff08CET\uff09\uff0c\u603b\u91cf\u4e3a 20 \u4ebf\u3002Chaince \u4ea4\u6613\u5e73\u53f0\u4f1a\u5c06\u6240\u6709 EOS \u4ea4\u6613\u5bf9\u4e2d\u7684 EOS \u4ee3\u5e01\u5355\u5411\u624b\u7eed\u8d39\uff08\u5373\u7528\u6237\u5356\u51fa\u5176\u4ed6\u4ee3\u5e01\u4e70\u5165 EOS \u4ee3\u5e01\u65f6\u6240\u652f\u4ed8\u7684\u624b\u7eed\u8d39\uff09\u7684 50% \u6c38\u4e45\u6301\u7eed\u6bcf\u5468\u6ce8\u5165 Chaince \u57fa\u91d1\u4f1a\u7684\u516c\u5f00\u5730\u5740\u5f53\u4e2d\uff0c\u6bcf\u4e2a CET \u4ee3\u5e01\u5747\u4ee3\u8868\u57fa\u91d1\u4f1a\u6240\u6301 EOS \u4ee3\u5e01\u7684 20 \u4ebf\u5206\u4e4b\u4e00\u3002",
                "community": null
            }
        ],
        "first_page_url": "http://dapp-admin-dev-api/bw/v3/tokens?page=1",
        "from": 1,
        "last_page": 523,
        "last_page_url": "http://dapp-admin-dev-api/bw/v3/tokens?page=523",
        "next_page_url": "http://dapp-admin-dev-api/bw/v3/tokens?page=2",
        "path": "http://dapp-admin-dev-api/bw/v3/tokens",
        "per_page": 15,
        "prev_page_url": null,
        "to": 15,
        "total": 7841
    }
}
